{
  "project_info": {
    "project_number": "540193789485",
    "firebase_url": "https://tappit-44629.firebaseio.com",
    "project_id": "tappit-44629",
    "storage_bucket": "tappit-44629.appspot.com"
  },
  "client": [
    {
      "client_info": {
        "mobilesdk_app_id": "1:540193789485:android:3cc09377420b1367",
        "android_client_info": {
          "package_name": "com.MindTapp.TappIT"
        }
      },
      "oauth_client": [
        {
          "client_id": "540193789485-99q5o9hm0h12pmp461r9vsdgmhvgv0eu.apps.googleusercontent.com",
          "client_type": 3
        }
      ],
      "api_key": [
        {
          "current_key": "AIzaSyCWMPb-fTkc8wSzBtqDjFjR_vCSICDwoF8"
        }
      ],
      "services": {
        "appinvite_service": {
          "other_platform_oauth_client": [
            {
              "client_id": "540193789485-99q5o9hm0h12pmp461r9vsdgmhvgv0eu.apps.googleusercontent.com",
              "client_type": 3
            },
            {
              "client_id": "540193789485-m1dm9sn9hc1itdlt28bepjihrgsch6on.apps.googleusercontent.com",
              "client_type": 2,
              "ios_info": {
                "bundle_id": "com.MindTapp.TappItV2ios"
              }
            }
          ]
        }
      }
    }
  ],
  "configuration_version": "1"
}